{
    "default": "python3",
    "kernelspecs": {
        "python3": {
            "name": "python3",
            "spec": {"argv": ["/usr/bin/python3.10", "-m", "ipykernel_launcher", "-f", "{connection_file}"],
                     "env": {},
                     "display_name": "Python 3",
                     "language": "python",
                     "interrupt_mode": "signal",
                     "metadata": {}
                    },
            "resources": {
                "logo-64x64": "kernelspecs/python3/logo-64x64.png",
                "logo-32x32": "kernelspecs/python3/logo-32x32.png"
            }
        }
    }
}
